{
  "headerTitle": "CompetitiveEdgeGains",
  "signUpPrompt": "New to CompetitiveEdgeGains? Create an account to get started!",
  "signInPrompt": "Already have an account? Sign in to continue your learning journey!",
  "forgotPassword": "Forgot password?",
  "signin": "Sign In",
  "signup": "Sign Up",
  "lables": {
    "userName": "User Name*",
    "email": "Email*",
    "phoneNumber": "Phone Number*",
    "password": "Password*",
    "confirmPassword": "Confirm Password*",
    "course": "Select course*"
  },
  "nameRequirements": {
    "minimumLength": "Name must have a minimum length of 2 characters"
  },
  "passwordRequirements": {
    "errorMessage": "Password must contain:",
    "capitalLetter": " at least one capital letter,",
    "specialCharacter": " at least one special character,",
    "minimumLength": " a minimum length of 6 characters"
  },
  "passwordNotMatch": "The password did not match",
  "invalidMail": "Invalid mail",
  "selectCourse": "Please select at least one course",
  "invalidPhoneNumber": "Invalid Phone Number"
}
